%YAML 1.1
%TAG !u! tag:unity3d.com,2011:
--- !u!114 &11400000
MonoBehaviour:
  m_ObjectHideFlags: 0
  m_CorrespondingSourceObject: {fileID: 0}
  m_PrefabInstance: {fileID: 0}
  m_PrefabAsset: {fileID: 0}
  m_GameObject: {fileID: 0}
  m_Enabled: 1
  m_EditorHideFlags: 0
  m_Script: {fileID: 11500000, guid: ad02b1d24f60629488adbae1dbe339b8, type: 3}
  m_Name: Jungle_Choice_Explore
  m_EditorClassIdentifier: 
  text: Let's try a way through!
  test: {fileID: 11400000, guid: 938f7605a4d28eb46b97c4a6c37eed1c, type: 2}
  outcomeSuccessText: Your best men go ahead and manage to make a way through the
    trees and bushes. It is long and difficult, but you finally reach a safe place.
    Time to go on!
  outcomesSuccess:
  - {fileID: 11400000, guid: 530fb0ce0327e1a40b8ba7ebca621070, type: 2}
  outcomeFailureText: You try to get rid of this dense vegetation, but it's no use,
    you're losing strengh and don't know when this will end. You choose to stop this
    and go back. This hurts the party's morale.
  outcomesFailure:
  - {fileID: 11400000, guid: 0c5b385c975f4244a9caa8383cd1965a, type: 2}
  - {fileID: 11400000, guid: 530fb0ce0327e1a40b8ba7ebca621070, type: 2}
  - {fileID: 11400000, guid: 96a51304bee62fc40b128780429619a4, type: 2}
