%YAML 1.1
%TAG !u! tag:unity3d.com,2011:
--- !u!114 &11400000
MonoBehaviour:
  m_ObjectHideFlags: 0
  m_CorrespondingSourceObject: {fileID: 0}
  m_PrefabInstance: {fileID: 0}
  m_PrefabAsset: {fileID: 0}
  m_GameObject: {fileID: 0}
  m_Enabled: 1
  m_EditorHideFlags: 0
  m_Script: {fileID: 11500000, guid: 0fee1f5aac6e6834e90d1b39ee97b9fc, type: 3}
  m_Name: Jungle
  m_EditorClassIdentifier: 
  trigger:
  - {fileID: 11400000, guid: b8cd67c32a0eff24e963d11959dc8b73, type: 2}
  scoutingTest: {fileID: 11400000, guid: b858d65fc4f39f347b233a5f60ef81f8, type: 2}
  scoutingSuccessText: The party quickly comes back. "It's a jungle ahead, it will
    be hard to make our way through there!"
  scoutingSuccessOutcomes:
  - {fileID: 11400000, guid: 0d6bc94ac191d1a4ba89abe201795432, type: 2}
  scoutingFailureText: The party comes back quickly. "I just fell on a rock and destroyed
    my shoes!" They saw nothing, it's going to be hard to make a decision.
  scoutingFailureOutcomes:
  - {fileID: 11400000, guid: a0fa2e10964c741449cf3288d749d652, type: 2}
  title: The thick jungle
  text: You step into a very dense forest, and it's getting harder and harder to go
    on.
  illustration: {fileID: 0}
  choices:
  - {fileID: 11400000, guid: d3cbb48d4c5ff5b44a659c49e7c42f9a, type: 2}
  - {fileID: 11400000, guid: beabe2dc507f9e040b7b149516af8f8d, type: 2}
