%YAML 1.1
%TAG !u! tag:unity3d.com,2011:
--- !u!114 &11400000
MonoBehaviour:
  m_ObjectHideFlags: 0
  m_CorrespondingSourceObject: {fileID: 0}
  m_PrefabInstance: {fileID: 0}
  m_PrefabAsset: {fileID: 0}
  m_GameObject: {fileID: 0}
  m_Enabled: 1
  m_EditorHideFlags: 0
  m_Script: {fileID: 11500000, guid: 0fee1f5aac6e6834e90d1b39ee97b9fc, type: 3}
  m_Name: Rift
  m_EditorClassIdentifier: 
  trigger:
  - {fileID: 11400000, guid: 79224f83e3dd4c748aa3248da53c3594, type: 2}
  scoutingTest: {fileID: 11400000, guid: 122ea602796333e4da6623d4d4aadcb0, type: 2}
  scoutingSuccessText: The group comes back calmly. "We can't go through there, it's
    a rift."
  scoutingSuccessOutcomes:
  - {fileID: 11400000, guid: 0d6bc94ac191d1a4ba89abe201795432, type: 2}
  scoutingFailureText: The group comes back in panic with one fewer member. "A rift
    right after the trees! Our first member steped into it and fell!"
  scoutingFailureOutcomes:
  - {fileID: 11400000, guid: 989a0956f60e25b40a0a8695fef9249a, type: 2}
  title: Back or down?
  text: A gigantic rift shows up, right before your feet.
  illustration: {fileID: 0}
  choices:
  - {fileID: 11400000, guid: 0a05c3c092a33a946ad17fa229ff3dc2, type: 2}
  - {fileID: 11400000, guid: e4f8271f5d482ac4ea2d9a3dc8b99c74, type: 2}
