%YAML 1.1
%TAG !u! tag:unity3d.com,2011:
--- !u!114 &11400000
MonoBehaviour:
  m_ObjectHideFlags: 0
  m_CorrespondingSourceObject: {fileID: 0}
  m_PrefabInstance: {fileID: 0}
  m_PrefabAsset: {fileID: 0}
  m_GameObject: {fileID: 0}
  m_Enabled: 1
  m_EditorHideFlags: 0
  m_Script: {fileID: 11500000, guid: 0fee1f5aac6e6834e90d1b39ee97b9fc, type: 3}
  m_Name: Village
  m_EditorClassIdentifier: 
  trigger:
  - {fileID: 11400000, guid: 49b215a0ebd578044aa04f489a2ffa5c, type: 2}
  - {fileID: 11400000, guid: b8cd67c32a0eff24e963d11959dc8b73, type: 2}
  - {fileID: 11400000, guid: 79224f83e3dd4c748aa3248da53c3594, type: 2}
  scoutingTest: {fileID: 11400000, guid: 122ea602796333e4da6623d4d4aadcb0, type: 2}
  scoutingSuccessText: You find a village. Its inhabitants seem to be from this region.
    Getting close to them might me dangerous.
  scoutingSuccessOutcomes: []
  scoutingFailureText: The party comes back after a few minutes, wounded. "These people
    are crazy, they attacked us suddenly without hesitation!"
  scoutingFailureOutcomes:
  - {fileID: 11400000, guid: b8b0d974444f0ef4895bc2479f032914, type: 2}
  title: Savage
  text: You see a village through the vegetation.
  illustration: {fileID: 0}
  choices:
  - {fileID: 11400000, guid: 05824164d5c3cbf41a265fd77b9bcda5, type: 2}
  - {fileID: 11400000, guid: f70499b591fd6ee4c85e2cc9ac8e1e26, type: 2}
  - {fileID: 11400000, guid: 3e20a998595483b4b9abf51da16485c0, type: 2}
