%YAML 1.1
%TAG !u! tag:unity3d.com,2011:
--- !u!114 &11400000
MonoBehaviour:
  m_ObjectHideFlags: 0
  m_CorrespondingSourceObject: {fileID: 0}
  m_PrefabInstance: {fileID: 0}
  m_PrefabAsset: {fileID: 0}
  m_GameObject: {fileID: 0}
  m_Enabled: 1
  m_EditorHideFlags: 0
  m_Script: {fileID: 11500000, guid: ad02b1d24f60629488adbae1dbe339b8, type: 3}
  m_Name: Bear_Choice_Flee
  m_EditorClassIdentifier: 
  text: Run away!
  test: {fileID: 11400000, guid: 339ec0df4f512624da7ee488bf1c0717, type: 2}
  outcomeSuccessText: You manage to flee the battle without any damage. The bear goes
    back to sleep.
  outcomesSuccess:
  - {fileID: 11400000, guid: 96a51304bee62fc40b128780429619a4, type: 2}
  outcomeFailureText: The bear follows you. Most of you flee unharmed, but one soldier
    falls and gets mauled to death.
  outcomesFailure:
  - {fileID: 11400000, guid: 989a0956f60e25b40a0a8695fef9249a, type: 2}
  - {fileID: 11400000, guid: 96a51304bee62fc40b128780429619a4, type: 2}
