%YAML 1.1
%TAG !u! tag:unity3d.com,2011:
--- !u!114 &11400000
MonoBehaviour:
  m_ObjectHideFlags: 0
  m_CorrespondingSourceObject: {fileID: 0}
  m_PrefabInstance: {fileID: 0}
  m_PrefabAsset: {fileID: 0}
  m_GameObject: {fileID: 0}
  m_Enabled: 1
  m_EditorHideFlags: 0
  m_Script: {fileID: 11500000, guid: 0fee1f5aac6e6834e90d1b39ee97b9fc, type: 3}
  m_Name: Bear
  m_EditorClassIdentifier: 
  trigger:
  - {fileID: 11400000, guid: 79224f83e3dd4c748aa3248da53c3594, type: 2}
  - {fileID: 11400000, guid: 49b215a0ebd578044aa04f489a2ffa5c, type: 2}
  scoutingTest: {fileID: 11400000, guid: fe6ad1033555b744283e601ce9aa11e5, type: 2}
  scoutingSuccessText: You find a bear sleeping in the woods.
  scoutingSuccessOutcomes:
  - {fileID: 11400000, guid: 0d6bc94ac191d1a4ba89abe201795432, type: 2}
  scoutingFailureText: A single scout comes back from the mission. He is covered and
    blood, and whispers "monster" before falling in your arms.
  scoutingFailureOutcomes:
  - {fileID: 11400000, guid: 709ab0f95f0e13c449539a7658714fbc, type: 2}
  title: A dangerous beast!
  text: You just woke up a bear and it's attacking you!
  illustration: {fileID: 0}
  choices:
  - {fileID: 11400000, guid: 69d5549fb9e7bec449ca6eb7b0819aa9, type: 2}
  - {fileID: 11400000, guid: e04cd0721e41d704993f17ec5c14ae01, type: 2}
