%YAML 1.1
%TAG !u! tag:unity3d.com,2011:
--- !u!114 &11400000
MonoBehaviour:
  m_ObjectHideFlags: 0
  m_CorrespondingSourceObject: {fileID: 0}
  m_PrefabInstance: {fileID: 0}
  m_PrefabAsset: {fileID: 0}
  m_GameObject: {fileID: 0}
  m_Enabled: 1
  m_EditorHideFlags: 0
  m_Script: {fileID: 11500000, guid: ad02b1d24f60629488adbae1dbe339b8, type: 3}
  m_Name: Crocodile_Choice_Flee
  m_EditorClassIdentifier: 
  text: Don't let him come closer, run!
  test: {fileID: 11400000, guid: 0509db8def8819743a60fd163987b53a, type: 2}
  outcomeSuccessText: He's fast, but you manage to stay far from him, and he gives
    up the chase. You go back and it's time to think about your next move.
  outcomesSuccess:
  - {fileID: 11400000, guid: 96a51304bee62fc40b128780429619a4, type: 2}
  outcomeFailureText: You run, but as usual, there's the low bait... The crocodile
    gets close to him and grabs his leg. It's too late for him, but at least it will
    gain some time for the party to run.
  outcomesFailure:
  - {fileID: 11400000, guid: 989a0956f60e25b40a0a8695fef9249a, type: 2}
  - {fileID: 11400000, guid: 96a51304bee62fc40b128780429619a4, type: 2}
