%YAML 1.1
%TAG !u! tag:unity3d.com,2011:
--- !u!114 &11400000
MonoBehaviour:
  m_ObjectHideFlags: 0
  m_CorrespondingSourceObject: {fileID: 0}
  m_PrefabInstance: {fileID: 0}
  m_PrefabAsset: {fileID: 0}
  m_GameObject: {fileID: 0}
  m_Enabled: 1
  m_EditorHideFlags: 0
  m_Script: {fileID: 11500000, guid: 7388839fecd0755459ebd4cd36fbd164, type: 3}
  m_Name: ETest_Combat_15
  m_EditorClassIdentifier: 
  testDifficulty: 15
  useCombatBonus: 1
  useExplorationBonus: 0
