%YAML 1.1
%TAG !u! tag:unity3d.com,2011:
--- !u!114 &11400000
MonoBehaviour:
  m_ObjectHideFlags: 0
  m_CorrespondingSourceObject: {fileID: 0}
  m_PrefabInstance: {fileID: 0}
  m_PrefabAsset: {fileID: 0}
  m_GameObject: {fileID: 0}
  m_Enabled: 1
  m_EditorHideFlags: 0
  m_Script: {fileID: 11500000, guid: 2fca740036869e24983baba29d22109d, type: 3}
  m_Name: _Database
  m_EditorClassIdentifier: 
  startCharacters: 14
  mandatoryStartTraits:
  - {fileID: 11400000, guid: 02022130e6f29f440a9f5acc93ba888a, type: 2}
  - {fileID: 11400000, guid: c256a6964db20a641853c3229bccea67, type: 2}
  - {fileID: 11400000, guid: c256a6964db20a641853c3229bccea67, type: 2}
  - {fileID: 11400000, guid: c256a6964db20a641853c3229bccea67, type: 2}
  - {fileID: 11400000, guid: ff64a606cdff28a40bdfcb3d28ff7363, type: 2}
  - {fileID: 11400000, guid: b23c8ef1c450e49418c7fcd49b68845d, type: 2}
  - {fileID: 11400000, guid: 9d7cd96d256cfa147a1a8ca6274b0ab6, type: 2}
  allowedStartTraits:
  - {fileID: 11400000, guid: ff64a606cdff28a40bdfcb3d28ff7363, type: 2}
  - {fileID: 11400000, guid: 9d7cd96d256cfa147a1a8ca6274b0ab6, type: 2}
  - {fileID: 11400000, guid: b23c8ef1c450e49418c7fcd49b68845d, type: 2}
  traits:
  - {fileID: 11400000, guid: c256a6964db20a641853c3229bccea67, type: 2}
  - {fileID: 11400000, guid: 9d7cd96d256cfa147a1a8ca6274b0ab6, type: 2}
  - {fileID: 11400000, guid: 02022130e6f29f440a9f5acc93ba888a, type: 2}
  - {fileID: 11400000, guid: b23c8ef1c450e49418c7fcd49b68845d, type: 2}
  - {fileID: 11400000, guid: ff64a606cdff28a40bdfcb3d28ff7363, type: 2}
  - {fileID: 11400000, guid: 9a2dcd9c12bd10d449a4e64220dbad7c, type: 2}
  events:
  - {fileID: 11400000, guid: bb3546e831012bc43962b99102073362, type: 2}
  - {fileID: 11400000, guid: f5966a11aa961d94db40866721dbb48a, type: 2}
  - {fileID: 11400000, guid: 6ba83972fec873849b7c9246d7562862, type: 2}
  - {fileID: 11400000, guid: 70e4f0e19624dc54691c7ec461bc4e85, type: 2}
  - {fileID: 11400000, guid: 72a17170ae980d548b74c526db7a4107, type: 2}
  - {fileID: 11400000, guid: 785a0616ecbb4ac4181aacc14e2d5ac5, type: 2}
  - {fileID: 11400000, guid: 011983575e250c544acd904145453252, type: 2}
  - {fileID: 11400000, guid: ecf9707c74a9a9d4caa0f14ed1a54740, type: 2}
  - {fileID: 11400000, guid: 93cb3e477a1237041a0b49be78a2af68, type: 2}
  - {fileID: 11400000, guid: c88059f2b7380c244a42973c907c7313, type: 2}
  - {fileID: 11400000, guid: e75ed819503b0854eb7a9a1828aa06d0, type: 2}
  - {fileID: 11400000, guid: 7197cbd94be580d448ab4c9888213ab1, type: 2}
  - {fileID: 11400000, guid: 28303857b4a13f54d8b3da01178147b4, type: 2}
  - {fileID: 11400000, guid: e4376e0a0ccb41e408b4f3e9510b25f3, type: 2}
  - {fileID: 11400000, guid: 2e086b56a8cd9b944a0bfbce69cac82a, type: 2}
  - {fileID: 11400000, guid: 00aea0cca730f1345badc1a3ffe4e000, type: 2}
