%YAML 1.1
%TAG !u! tag:unity3d.com,2011:
--- !u!114 &11400000
MonoBehaviour:
  m_ObjectHideFlags: 0
  m_CorrespondingSourceObject: {fileID: 0}
  m_PrefabInstance: {fileID: 0}
  m_PrefabAsset: {fileID: 0}
  m_GameObject: {fileID: 0}
  m_Enabled: 1
  m_EditorHideFlags: 0
  m_Script: {fileID: 11500000, guid: dd6b30cbbbdaeb543a9be351a92317de, type: 3}
  m_Name: ActionList_Validate
  m_EditorClassIdentifier: 
  actions:
  - {fileID: 11400000, guid: 294d361857d9b054aae54650913ced32, type: 2}
  - {fileID: 11400000, guid: 7c20a0129c6a6634d928b8490cde89c4, type: 2}
