%YAML 1.1
%TAG !u! tag:unity3d.com,2011:
--- !u!114 &11400000
MonoBehaviour:
  m_ObjectHideFlags: 0
  m_CorrespondingSourceObject: {fileID: 0}
  m_PrefabInstance: {fileID: 0}
  m_PrefabAsset: {fileID: 0}
  m_GameObject: {fileID: 0}
  m_Enabled: 1
  m_EditorHideFlags: 0
  m_Script: {fileID: 11500000, guid: 01ded914ccbdc774fbe4634eda463df5, type: 3}
  m_Name: CharacterTrait_President
  m_EditorClassIdentifier: 
  title: President
  abbreviation: P
  power: 4
  combatBonus: -3
  explorationBonus: -3
  possibleActions:
  - {fileID: 11400000, guid: bb0098d5ca3b0e34dbff3f382386f0e4, type: 2}
  - {fileID: 11400000, guid: 786d7d6063c5f2e47aa7d5b14124534a, type: 2}
  - {fileID: 11400000, guid: 9e374ee1f1966514e824c7735f4bb70b, type: 2}
  possiblePortraits:
  - {fileID: 11400000, guid: e686d003ae7614449b3a81d0c7c37f59, type: 2}
  - {fileID: 11400000, guid: a800e581ff5f24840854febb0559efe1, type: 2}
  possibleIdentities:
  - {fileID: 11400000, guid: df4d8f9d82e05bf48b1fb4da16533a2c, type: 2}
  - {fileID: 11400000, guid: 0d868cfc11126ae499bb5d8f59ad547d, type: 2}
  - {fileID: 11400000, guid: 900f5447c01454c4fba845b28eb4a2ce, type: 2}
  - {fileID: 11400000, guid: 9bc3b5738a4be714282eedfd22025288, type: 2}
  - {fileID: 11400000, guid: 9a4342f5efe3f9d4787456a7c91d7900, type: 2}
  needToSurvive: 1
  bodyguard: 0
