%YAML 1.1
%TAG !u! tag:unity3d.com,2011:
--- !u!114 &11400000
MonoBehaviour:
  m_ObjectHideFlags: 0
  m_CorrespondingSourceObject: {fileID: 0}
  m_PrefabInstance: {fileID: 0}
  m_PrefabAsset: {fileID: 0}
  m_GameObject: {fileID: 0}
  m_Enabled: 1
  m_EditorHideFlags: 0
  m_Script: {fileID: 11500000, guid: 01ded914ccbdc774fbe4634eda463df5, type: 3}
  m_Name: CharacterTrait_Soldier
  m_EditorClassIdentifier: 
  title: Soldier
  abbreviation: S
  power: 2
  combatBonus: 2
  combatStaminaBonus: 1
  explorationBonus: 2
  explorationSanityBonus: 0
  possibleActions:
  - {fileID: 11400000, guid: bb0098d5ca3b0e34dbff3f382386f0e4, type: 2}
  - {fileID: 11400000, guid: 0f6f9d419ce16314587ea5b8f50c4c66, type: 2}
  - {fileID: 11400000, guid: fae17b9b5a70b0e4296b1d2691d9192c, type: 2}
  - {fileID: 11400000, guid: 786d7d6063c5f2e47aa7d5b14124534a, type: 2}
  possiblePortraits:
  - {fileID: 11400000, guid: b0c7a28c818c722489e720a597a3c172, type: 2}
  - {fileID: 11400000, guid: e5dc4bf4b2ea78d489d0ea5f4aae55ce, type: 2}
  - {fileID: 11400000, guid: 27c2035f5b0dc474d8407a8dedf22796, type: 2}
  - {fileID: 11400000, guid: ead8327055c233145a71c31af592a608, type: 2}
  possibleIdentities:
  - {fileID: 11400000, guid: 3716ec31bdde54847942e43a5f345550, type: 2}
  - {fileID: 11400000, guid: bda3d1b75c80f674e840bb1234334b6d, type: 2}
  - {fileID: 11400000, guid: 07719ab971af79c42a75fa1bd2d34da1, type: 2}
  - {fileID: 11400000, guid: dc32efa1fea39ff45ba60e5c2ed0cb95, type: 2}
  - {fileID: 11400000, guid: 3433405f2eaf77341a5c1e1e456cae02, type: 2}
  - {fileID: 11400000, guid: 262b4e40db6382240be1df05b82f80d0, type: 2}
  - {fileID: 11400000, guid: 725b4717353410d4f9c4a38f33d535fb, type: 2}
  - {fileID: 11400000, guid: 71ff416d81857ef439227e16448cf133, type: 2}
  - {fileID: 11400000, guid: 7a48023322646b142971b3a9c84a2601, type: 2}
  - {fileID: 11400000, guid: e0a8c5f3adcb69f438f37c5b7e78e457, type: 2}
  - {fileID: 11400000, guid: e3b5c0cc31d30d842a07391fd6c56850, type: 2}
  - {fileID: 11400000, guid: 0e6f1693ee62b0c4482d967b3cc07ac3, type: 2}
  - {fileID: 11400000, guid: e0b404b1e10cd144d8203d646e9e7dbb, type: 2}
  - {fileID: 11400000, guid: fad6e7d4a4240b3408a68c0581309d1f, type: 2}
  - {fileID: 11400000, guid: 516188720005c7b4184deec4684569a6, type: 2}
  - {fileID: 11400000, guid: dcd51ff26af657f4b9b7245f8c0f9a62, type: 2}
  - {fileID: 11400000, guid: 79e45ea3c16897e48892dbcce3d672b9, type: 2}
  - {fileID: 11400000, guid: cc3a0cad55f6c1b44bfc55f2f5597b11, type: 2}
  - {fileID: 11400000, guid: fa8f00a81106d3948a1393f428d06a5a, type: 2}
  - {fileID: 11400000, guid: f34a1d2d9c150c84aa8dfed0c3d8add1, type: 2}
  - {fileID: 11400000, guid: 9ffc086106d582b44ab68c37931c2219, type: 2}
  - {fileID: 11400000, guid: 14e5daa2bf351b84491641d729e4e0b0, type: 2}
  - {fileID: 11400000, guid: f5e77401d43edf04c94d4c06c4cf2a0d, type: 2}
  - {fileID: 11400000, guid: e2dc98d8df065174280b1e95cd24efcb, type: 2}
  - {fileID: 11400000, guid: 616b4b152a674ad419c5e585d11fb67a, type: 2}
  - {fileID: 11400000, guid: 46275a4d3893d2941b255742d03da99c, type: 2}
  - {fileID: 11400000, guid: acf8c0547319ae440a61c9f814434a78, type: 2}
  - {fileID: 11400000, guid: fa0eab1575303584384625386e22a229, type: 2}
  - {fileID: 11400000, guid: 8cfbcc01faa5aab4095bac20c77f8f04, type: 2}
  - {fileID: 11400000, guid: 02aee584e4cf7224597772c108a3cf0b, type: 2}
  - {fileID: 11400000, guid: 7d66e29f2720ee2499ad35b9b1d66b50, type: 2}
  - {fileID: 11400000, guid: 0858dcf21fcf4cf46ac8197d45e47504, type: 2}
  - {fileID: 11400000, guid: 9134b0565fb462346b4a1fb6290ffbfa, type: 2}
  - {fileID: 11400000, guid: 337f5f744d03c9748a9e88b395f3fe08, type: 2}
  - {fileID: 11400000, guid: 9b3b63fe0b8ac9e489a2304d80d3060c, type: 2}
  - {fileID: 11400000, guid: 8297643be2022144f937f774540ad3a9, type: 2}
  - {fileID: 11400000, guid: 2522507d147d2a84cb54e68d9bd8cf25, type: 2}
  - {fileID: 11400000, guid: bce59340b062d8740806eb220b46f816, type: 2}
  - {fileID: 11400000, guid: dea1b14cc3f40004299762b856f2d3ef, type: 2}
  - {fileID: 11400000, guid: 9fce757c039592741a13c5d68a062ac7, type: 2}
  - {fileID: 11400000, guid: 25f0f069e8a7a42498fa7f0d02bab8ff, type: 2}
  - {fileID: 11400000, guid: 62b741eb1fdd2124981344aa93001bbe, type: 2}
  - {fileID: 11400000, guid: e799f5385ab73eb46832b75a88493272, type: 2}
  - {fileID: 11400000, guid: 3268fb84273a1ca4bb0c5c5ac9d87068, type: 2}
  - {fileID: 11400000, guid: cabdb5bc62074d142aa9e1a470c02cfb, type: 2}
  needToSurvive: 0
  bodyguard: 0
