%YAML 1.1
%TAG !u! tag:unity3d.com,2011:
--- !u!114 &11400000
MonoBehaviour:
  m_ObjectHideFlags: 0
  m_CorrespondingSourceObject: {fileID: 0}
  m_PrefabInstance: {fileID: 0}
  m_PrefabAsset: {fileID: 0}
  m_GameObject: {fileID: 0}
  m_Enabled: 1
  m_EditorHideFlags: 0
  m_Script: {fileID: 11500000, guid: 3ff35c99203c4af49be01daba1540445, type: 3}
  m_Name: ETrigger_Plain
  m_EditorClassIdentifier: 
  hook: 0
  terrainType: {fileID: 11400000, guid: 4e9d45127da9a3841ad82a76e5dfecc6, type: 2}
