%YAML 1.1
%TAG !u! tag:unity3d.com,2011:
--- !u!114 &11400000
MonoBehaviour:
  m_ObjectHideFlags: 0
  m_CorrespondingSourceObject: {fileID: 0}
  m_PrefabInstance: {fileID: 0}
  m_PrefabAsset: {fileID: 0}
  m_GameObject: {fileID: 0}
  m_Enabled: 1
  m_EditorHideFlags: 0
  m_Script: {fileID: 11500000, guid: cf4ffef4e1600d143b7c6e474426e7f8, type: 3}
  m_Name: Portrait_SoldierF2
  m_EditorClassIdentifier: 
  sprite: {fileID: 21300000, guid: f92d5e7cb9c7a694093afa6ca5d28a57, type: 3}
  gender: 1
