%YAML 1.1
%TAG !u! tag:unity3d.com,2011:
--- !u!114 &11400000
MonoBehaviour:
  m_ObjectHideFlags: 0
  m_CorrespondingSourceObject: {fileID: 0}
  m_PrefabInstance: {fileID: 0}
  m_PrefabAsset: {fileID: 0}
  m_GameObject: {fileID: 0}
  m_Enabled: 1
  m_EditorHideFlags: 0
  m_Script: {fileID: 11500000, guid: 78f10cdd15dec4441a908702bcad7c52, type: 3}
  m_Name: Terrain_Mountain
  m_EditorClassIdentifier: 
  title: Mountain
  sprites:
  - {fileID: 21300000, guid: 4588812619d5a094ca426d741e383c82, type: 3}
  - {fileID: 21300000, guid: acf2fc98d36a32e47b843b42c842f2e7, type: 3}
  foodSearchBonus: 0
  recoveryBonus: 1
  dangerLevel: 2
