%YAML 1.1
%TAG !u! tag:unity3d.com,2011:
--- !u!114 &11400000
MonoBehaviour:
  m_ObjectHideFlags: 0
  m_CorrespondingSourceObject: {fileID: 0}
  m_PrefabInstance: {fileID: 0}
  m_PrefabAsset: {fileID: 0}
  m_GameObject: {fileID: 0}
  m_Enabled: 1
  m_EditorHideFlags: 0
  m_Script: {fileID: 11500000, guid: ad02b1d24f60629488adbae1dbe339b8, type: 3}
  m_Name: CPeace_Choice_WhiteFlag
  m_EditorClassIdentifier: 
  text: Let's see if we can team up!
  test: {fileID: 11400000, guid: 5dc22beff406ab7408733587b1d7d440, type: 2}
  outcomeSuccessText: You come close to the camp, harmless, telling them what your
    purpose is. They listen, then accept to join your group and give you their food.
    Good choice!
  outcomesSuccess:
  - {fileID: 11400000, guid: a0f2d2a4748094945bdffcd4592afb36, type: 2}
  - {fileID: 11400000, guid: dab1abf4c1a775f47ab4a64f8c331759, type: 2}
  - {fileID: 11400000, guid: dab1abf4c1a775f47ab4a64f8c331759, type: 2}
  outcomeFailureText: 
  outcomesFailure: []
