%YAML 1.1
%TAG !u! tag:unity3d.com,2011:
--- !u!114 &11400000
MonoBehaviour:
  m_ObjectHideFlags: 0
  m_CorrespondingSourceObject: {fileID: 0}
  m_PrefabInstance: {fileID: 0}
  m_PrefabAsset: {fileID: 0}
  m_GameObject: {fileID: 0}
  m_Enabled: 1
  m_EditorHideFlags: 0
  m_Script: {fileID: 11500000, guid: ad02b1d24f60629488adbae1dbe339b8, type: 3}
  m_Name: CThreat_Choice_Attack
  m_EditorClassIdentifier: 
  text: Attack!
  test: {fileID: 11400000, guid: 938f7605a4d28eb46b97c4a6c37eed1c, type: 2}
  outcomeSuccessText: You attack the camp recklessly, but don't see the hidden people
    elsewhere, who attacked your backline. Hopefully, some soldiers were here to protect
    you, but didn't manage to rescue everyone. You lose one man, 2 are wounded, but
    at least you killed them all!
  outcomesSuccess:
  - {fileID: 11400000, guid: 989a0956f60e25b40a0a8695fef9249a, type: 2}
  - {fileID: 11400000, guid: a0fa2e10964c741449cf3288d749d652, type: 2}
  outcomeFailureText: You attack the camp recklessly, but don't see the hidden people
    elsewhere, who attacked your backline. It quickly becomes bloody. They killed
    many people, and caught your group. "Don't ever come back here again!" They let
    you go away, but you lost many of your men.
  outcomesFailure:
  - {fileID: 11400000, guid: 989a0956f60e25b40a0a8695fef9249a, type: 2}
  - {fileID: 11400000, guid: 989a0956f60e25b40a0a8695fef9249a, type: 2}
  - {fileID: 11400000, guid: 96a51304bee62fc40b128780429619a4, type: 2}
