%YAML 1.1
%TAG !u! tag:unity3d.com,2011:
--- !u!114 &11400000
MonoBehaviour:
  m_ObjectHideFlags: 0
  m_CorrespondingSourceObject: {fileID: 0}
  m_PrefabInstance: {fileID: 0}
  m_PrefabAsset: {fileID: 0}
  m_GameObject: {fileID: 0}
  m_Enabled: 1
  m_EditorHideFlags: 0
  m_Script: {fileID: 11500000, guid: ad02b1d24f60629488adbae1dbe339b8, type: 3}
  m_Name: Grove_Choice_Rest
  m_EditorClassIdentifier: 
  text: Stay here for now
  test: {fileID: 11400000, guid: 5dc22beff406ab7408733587b1d7d440, type: 2}
  outcomeSuccessText: You're getting ready to make your next decision from this fairly
    safe place.
  outcomesSuccess:
  - {fileID: 11400000, guid: 0d6bc94ac191d1a4ba89abe201795432, type: 2}
  outcomeFailureText: 
  outcomesFailure: []
