%YAML 1.1
%TAG !u! tag:unity3d.com,2011:
--- !u!114 &11400000
MonoBehaviour:
  m_ObjectHideFlags: 0
  m_CorrespondingSourceObject: {fileID: 0}
  m_PrefabInstance: {fileID: 0}
  m_PrefabAsset: {fileID: 0}
  m_GameObject: {fileID: 0}
  m_Enabled: 1
  m_EditorHideFlags: 0
  m_Script: {fileID: 11500000, guid: 0fee1f5aac6e6834e90d1b39ee97b9fc, type: 3}
  m_Name: Plateau_Food
  m_EditorClassIdentifier: 
  trigger:
  - {fileID: 11400000, guid: 79224f83e3dd4c748aa3248da53c3594, type: 2}
  scoutingTest: {fileID: 11400000, guid: 5dc22beff406ab7408733587b1d7d440, type: 2}
  scoutingSuccessText: You find a plateau upon the mountain, with some food trees.
  scoutingSuccessOutcomes: []
  scoutingFailureText: 
  scoutingFailureOutcomes: []
  title: Peace and fruits
  text: You reach a plateau as you climb the mountain. You see some trees with strange
    fruits.
  illustration: {fileID: 0}
  choices:
  - {fileID: 11400000, guid: 7ba29927764f4614495f67e2b1a1cf9c, type: 2}
  - {fileID: 11400000, guid: 433a600e1f80fb54589ed693bd27eabb, type: 2}
