%YAML 1.1
%TAG !u! tag:unity3d.com,2011:
--- !u!1045 &1
EditorBuildSettings:
  m_ObjectHideFlags: 0
  serializedVersion: 2
  m_Scenes:
  - enabled: 1
    path: Assets/Scenes/title.unity
    guid: f2be92bb372edab4ab3eac7b9978b306
  - enabled: 1
    path: Assets/Scenes/main.unity
    guid: a835362d8de8db9499c325b304aaf6ad
  m_configObjects: {}
